<svg xmlns="http://www.w3.org/2000/svg" width="33" height="20" viewBox="0 0 33 20">
  <g fill="#FFE57C" fill-rule="nonzero">
    <path d="M6.3 13.4c.8 0 1 1-1.2 3C3 18 2 18 2 19c0 .7.6 1.2 2.3.8 1.8-.3 5.2-2 7.4-4.6 3-3.3 2.6-7.4 2.6-8.5C14 3 11 0 7 0S0 3 0 6.7s2.4 6.7 6.3 6.7zM23.3 13.4c.8 0 1 1-1.2 3C20 18 19 18 19 19c0 .7.6 1.2 2.3.8 1.8-.3 5.2-2 7.4-4.6 3-3.3 2.6-7.4 2.6-8.5C31 3 28 0 24 0s-7 3-7 6.7 2.4 6.7 6.3 6.7z"/>
  </g>
</svg>